; Engine configuration file.
; It's best edited using the editor UI and not directly,
; since the parameters that go here are not all obvious.
;
; Format:
;   [section] ; section goes between []
;   param=value ; assign values to parameters

config_version=4

_global_script_classes=[  ]
_global_script_class_icons={

}

[application]

config/name="Ancient Nightmares - La Mansión Atkins"
run/main_scene="res://scenes/Main.tscn"
config/use_custom_user_dir=true
config/custom_user_dir_name="an-mansion-atkins"
boot_splash/image="res://assets/textures/splash.png"
boot_splash/bg_color=Color( 0, 0, 0, 1 )
config/icon="res://icon.png"
config/auto_accept_quit=false
config/quit_on_go_back=false

[autoload]

Utils="*res://scripts/utils.gd"
GUIUtils="*res://scripts/gui_utils.gd"
SettingsManager="*res://scripts/settings_manager.gd"
DisableAutoQuit="*res://scripts/disable_auto_quit.gd"
GBE="*res://scripts/gbe.gd"

[display]

window/size/width=1080
window/size/height=1920
window/size/resizable=false
window/energy_saving/keep_screen_on=false
window/handheld/orientation="portrait"
window/stretch/mode="2d"
window/stretch/aspect="keep"

[editor_plugins]

enabled=PoolStringArray( "tweener" )

[locale]

translations=PoolStringArray( "res://translations/translation.es.translation" )
locale_filter=[ 0, [ "es_ES" ] ]

[rendering]

quality/driver/driver_name="GLES2"
quality/driver/fallback_to_gles2=true
vram_compression/import_etc=true
environment/default_environment="res://default_env.tres"
